Reshaping data
…
```r
table4a %>% gather(key = "year", value = "cases", `1999`, `2000`) %>%
  spread(year, cases)
```
---
# Missing data, gather, and spread.
In our previous examples we see that *gather* and *spread* behave like inverse operations of one another. This is not always the case.
Consider the following contrived dataset.

```r
stocks
```

```
## # A tibble: 7 x 3
##    year quarter return
##   <dbl>   <dbl>  <dbl>
## 1  2015       1   1.88
## 2  2015       2   0.59
## 3  2015       3   0.35
## 4  2015       4  NA   
## 5  2016       2   0.92
## 6  2016       3   0.17
## # … with 1 more row
```
…
```r
stocks %>% spread(year, return) %>% 
  gather(year, return, `2015`, `2016`)
```

```
## # A tibble: 8 x 3
##   quarter year  return
##     <dbl> <chr>  <dbl>
## 1       1 2015    1.88
## 2       2 2015    0.59
## 3       3 2015    0.35
## 4       4 2015   NA   
## 5       1 2016   NA   
## 6       2 2016    0.92
## # … with 2 more rows
```
…
For this example we use the following dataset from the `\(2014\)` World Health Organization (WHO) Global Tubercolosis Report. This dataset records the number of cases of tubercolosis in countries around the world during the period of `\(1980\)` through `\(2013\)`. 

```r
who
```

```
## # A tibble: 7,240 x 60
##   country iso2  iso3   year new_sp_m014 new_sp_m1524 new_sp_m2534
##   <chr>   <chr> <chr> <int>       <int>        <int>        <int>
## 1 Afghan… AF    AFG    1980          NA           NA           NA
## 2 Afghan… AF    AFG    1981          NA           NA           NA
## 3 Afghan… AF    AFG    1982          NA           NA           NA
## 4 Afghan… AF    AFG    1983          NA           NA           NA
## 5 Afghan… AF    AFG    1984          NA           NA           NA
## 6 Afghan… AF    AFG    1985          NA           NA           NA
## # … with 7,234 more rows, and 53 more variables: new_sp_m3544 <int>,
## #   new_sp_m4554 <int>, new_sp_m5564 <int>, new_sp_m65 <int>,
## #   new_sp_f014 <int>, new_sp_f1524 <int>, new_sp_f2534 <int>,
## #   new_sp_f3544 <int>, new_sp_f4554 <int>, new_sp_f5564 <int>,
## #   new_sp_f65 <int>, new_sn_m014 <int>, new_sn_m1524 <int>,
## #   new_sn_m2534 <int>, new_sn_m3544 <int>, new_sn_m4554 <int>,
## #   new_sn_m5564 <int>, new_sn_m65 <int>, new_sn_f014 <int>,
## #   new_sn_f1524 <int>, …
```
…
```r
airlines
```

```
## # A tibble: 16 x 2
##   carrier name                  
##   <chr>   <chr>                 
## 1 9E      Endeavor Air Inc.     
## 2 AA      American Airlines Inc.
## 3 AS      Alaska Airlines Inc.  
## # … with 13 more rows
```

```r
airports
```

```
## # A tibble: 1,458 x 8
##   faa   name                      lat   lon   alt    tz dst   tzone        
##   <chr> <chr>                   <dbl> <dbl> <int> <dbl> <chr> <chr>        
## 1 04G   Lansdowne Airport        41.1 -80.6  1044    -5 A     America/New_…
## 2 06A   Moton Field Municipal …  32.5 -85.7   264    -6 A     America/Chic…
## 3 06C   Schaumburg Regional      42.0 -88.1   801    -6 A     America/Chic…
## # … with 1,455 more rows
```
---
class: clear

```r
planes
```

```
## # A tibble: 3,322 x 9
##   tailnum  year type       manufacturer   model  engines seats speed engine
##   <chr>   <int> <chr>      <chr>          <chr>    <int> <int> <int> <chr> 
## 1 N10156   2004 Fixed win… EMBRAER        EMB-1…       2    55    NA Turbo…
## 2 N102UW   1998 Fixed win… AIRBUS INDUST… A320-…       2   182    NA Turbo…
## 3 N103US   1999 Fixed win… AIRBUS INDUST… A320-…       2   182    NA Turbo…
## # … with 3,319 more rows
```
…
```r
flights.sml %>% inner_join(planes)
```

```
## Joining, by = c("year", "tailnum")
```

```
## # A tibble: 4,630 x 14
##    year month   day dep_time tailnum carrier dest  type  manufacturer model
##   <int> <int> <int>    <int> <chr>   <chr>   <chr> <chr> <chr>        <chr>
## 1  2013     1    18     1846 N37465  UA      FLL   Fixe… BOEING       737-…
## 2  2013    10     1      647 N355JB  B6      BOS   Fixe… EMBRAER      ERJ …
## 3  2013    10     1      652 N37471  UA      LAX   Fixe… BOEING       737-…
## # … with 4,627 more rows, and 4 more variables: engines <int>,
## #   seats <int>, speed <int>, engine <chr>
```
…
```r
airports
```

```
## # A tibble: 1,458 x 8
##   faa   name                      lat   lon   alt    tz dst   tzone        
##   <chr> <chr>                   <dbl> <dbl> <int> <dbl> <chr> <chr>        
## 1 04G   Lansdowne Airport        41.1 -80.6  1044    -5 A     America/New_…
## 2 06A   Moton Field Municipal …  32.5 -85.7   264    -6 A     America/Chic…
## 3 06C   Schaumburg Regional      42.0 -88.1   801    -6 A     America/Chic…
## # … with 1,455 more rows
```
…
```r
flights %>% anti_join(planes, by = "tailnum") %>%
  group_by(tailnum) %>% summarise(n = n()) %>% arrange(desc(n))
```

```
## # A tibble: 722 x 2
##   tailnum     n
##   <chr>   <int>
## 1 <NA>     2512
## 2 N725MQ    575
## 3 N722MQ    513
## # … with 719 more rows
```
…
```r
coverage[53:nrow(coverage),]
```

```
## # A tibble: 26 x 29
##   Location `2013__Employer` `2013__Non-Grou… `2013__Medicaid`
##   <chr>               <dbl>            <dbl>            <dbl>
## 1 Notes                  NA               NA               NA
## 2 The maj…               NA               NA               NA
## 3 <NA>                   NA               NA               NA
## # … with 23 more rows, and 25 more variables: `2013__Medicare` <dbl>,
## #   `2013__Other Public` <chr>, `2013__Uninsured` <dbl>,
## #   `2013__Total` <dbl>, `2014__Employer` <dbl>, `2014__Non-Group` <dbl>,
## #   `2014__Medicaid` <dbl>, `2014__Medicare` <dbl>, `2014__Other
## #   Public` <chr>, `2014__Uninsured` <dbl>, `2014__Total` <dbl>,
## #   `2015__Employer` <dbl>, `2015__Non-Group` <dbl>,
## #   `2015__Medicaid` <dbl>, `2015__Medicare` <dbl>, `2015__Other
## #   Public` <chr>, `2015__Uninsured` <dbl>, `2015__Total` <dbl>,
## #   `2016__Employer` <dbl>, `2016__Non-Group` <dbl>, …
```
…
```r
coverage_long <- coverage %>%  gather(key = "year_type",value = "tot_coverage", 
                                      -Location)
coverage_long
```

```
## # A tibble: 1,456 x 3
##   Location      year_type      tot_coverage
##   <chr>         <chr>          <chr>       
## 1 United States 2013__Employer 155696900   
## 2 Alabama       2013__Employer 2126500     
## 3 Alaska        2013__Employer 364900      
## # … with 1,453 more rows
```
…
```
## Warning in rlang::eval_tidy(~.Primitive("as.integer")(tot_coverage),
## <environment>): NAs introduced by coercion
```
The spending data is also untidy. More magic the gathering.

```r
spending_long <- spending %>% gather(key = "year", value = "tot_spending", 
                                     -Location)
spending_long
```

```
## # A tibble: 1,248 x 3
##   Location      year                        tot_spending
##   <chr>         <chr>                              <dbl>
## 1 United States 1991__Total Health Spending       675896
## 2 Alabama       1991__Total Health Spending        10393
## 3 Alaska        1991__Total Health Spending         1458
## # … with 1,245 more rows
```
---
class: clear
We now separate the "year" column for the *spending* data and the "year_type" column for the *coverage* data

```r
(spending_long <- spending_long %>% 
  separate(year, sep = "__", into = c("year", "name"), convert = TRUE) %>%
  select(-name))
```

```
## # A tibble: 1,248 x 3
##   Location       year tot_spending
##   <chr>         <int>        <dbl>
## 1 United States  1991       675896
## 2 Alabama        1991        10393
## 3 Alaska         1991         1458
## # … with 1,245 more rows
```

```r
(coverage_long <- coverage_long %>%
  separate(year_type, sep = "__", into = c("year", "type"), convert = TRUE))
```

```
## # A tibble: 1,456 x 4
##   Location       year type     tot_coverage
##   <chr>         <int> <chr>           <int>
## 1 United States  2013 Employer    155696900
## 2 Alabama        2013 Employer      2126500
## 3 Alaska         2013 Employer       364900
## # … with 1,453 more rows
```
…
We now add more contextual information to the *coverage* dataset, such as the state region and abbreviation. These information are available from the *state* dataset in the **datasets** package. We note that the *coverage* dataset includes records for Washington DC, which is missing from the state dataset. Hence

```r
library(datasets)
data(state)
states.df <- tibble(state.name = c(state.name, "District of Columbia"),
                    state.abb =  c(state.abb, "DC"),
                    state.region = as.factor(c(as.character(state.region), "South")))
coverage_long <- coverage_long %>% 
  left_join(states.df, by = c("Location" = "state.name"))
coverage_long
```

```
## # A tibble: 1,456 x 6
##   Location       year type     tot_coverage state.abb state.region
##   <chr>         <int> <chr>           <int> <chr>     <fct>       
## 1 United States  2013 Employer    155696900 <NA>      <NA>        
## 2 Alabama        2013 Employer      2126500 AL        South       
## 3 Alaska         2013 Employer       364900 AK        West        
## # … with 1,453 more rows
```
…
```
## Joining, by = c("Location", "year")
```

```
## Joining, by = "Location"
```

```r
hc
```

```
## # A tibble: 728 x 8
##   Location  year type  tot_coverage state.abb state.region tot_spending
##   <chr>    <int> <chr>        <int> <chr>     <fct>               <dbl>
## 1 United …  2013 Empl…    155696900 <NA>      <NA>              2435624
## 2 Alabama   2013 Empl…      2126500 AL        South               33788
## 3 Alaska    2013 Empl…       364900 AK        West                 7684
## # … with 725 more rows, and 1 more variable: life_exp_years <dbl>
```
…
```r
pop <- hc %>% 
  filter(type == "Total") %>%
  select(Location, year, tot_coverage) %>%
  rename(tot_population = tot_coverage)
hc <- hc %>%
  filter(Location != "United States", type != "Total") %>%
  left_join(pop)
hc
```

```
## # A tibble: 612 x 9
##   Location  year type  tot_coverage state.abb state.region tot_spending
##   <chr>    <int> <chr>        <int> <chr>     <fct>               <dbl>
## 1 Alabama   2013 Empl…      2126500 AL        South               33788
## 2 Alaska    2013 Empl…       364900 AK        West                 7684
## 3 Arizona   2013 Empl…      2883800 AZ        West                41481
## # … with 609 more rows, and 2 more variables: life_exp_years <dbl>,
## #   tot_population <int>
```
…
```r
exp_wpct <- function(x, k = 2) { 
  return(1/(1 + (1/x)^k))
}
library(Lahman)
TeamRuns <- Teams %>% 
  rename(RS = R) %>% 
  mutate(wpct = W / (W + L), run_ratio = RS/RA, hat.wpct = exp_wpct(run_ratio)) %>%
  select(yearID, teamID, lgID, wpct, hat.wpct, run_ratio) 
TeamRuns
```

```
## # A tibble: 2,895 x 6
##   yearID teamID lgID   wpct hat.wpct run_ratio
##    <int> <fct>  <fct> <dbl>    <dbl>     <dbl>
## 1   1871 BS1    NA    0.667    0.637     1.32 
## 2   1871 CH1    NA    0.679    0.611     1.25 
## 3   1871 CL1    NA    0.345    0.348     0.730
## # … with 2,892 more rows
```
…
```
## # A tibble: 15 x 1
##       k
##   <dbl>
## 1  1.95
## 2  1.82
## 3  2.02
## 4  1.75
## 5  1.91
## 6  1.91
## # … with 9 more rows
```
…
```r
hr_leader <- function(x){
  x %>% select(yearID, lgID, teamID, HR) %>%
    arrange(desc(HR)) %>% head(n = 1)
}
library(Lahman)
hr_leaders <- Teams %>% group_split(yearID, lgID) %>%
  map_df(hr_leader)
hr_leaders
```

```
## # A tibble: 280 x 4
##   yearID lgID  teamID    HR
##    <int> <fct> <fct>  <int>
## 1   1871 NA    CH1       10
## 2   1872 NA    BL1       14
## 3   1873 NA    BS1       13
## 4   1874 NA    BS1       17
## 5   1875 NA    BS1       15
## 6   1876 NL    BSN        9
## # … with 274 more rows
```
…
